^C:\USERS\ROY-W\ONEDRIVE\מסמכים\MAGSHIMIM\FINAL PROJECT\COMPILER\C COMPILER\C COMPILER\LEXER.CPP|C:\USERS\ROY-W\ONEDRIVE\מסמכים\MAGSHIMIM\FINAL PROJECT\COMPILER\C COMPILER\C COMPILER\TOKEN.CPP
C:\USERS\ROY-W\ONEDRIVE\מסמכים\MAGSHIMIM\FINAL PROJECT\COMPILER\C COMPILER\C COMPILER\DEBUG\VC142.PDB
C:\USERS\ROY-W\ONEDRIVE\מסמכים\MAGSHIMIM\FINAL PROJECT\COMPILER\C COMPILER\C COMPILER\DEBUG\VC142.IDB
C:\USERS\ROY-W\ONEDRIVE\מסמכים\MAGSHIMIM\FINAL PROJECT\COMPILER\C COMPILER\C COMPILER\DEBUG\TOKEN.OBJ
C:\USERS\ROY-W\ONEDRIVE\מסמכים\MAGSHIMIM\FINAL PROJECT\COMPILER\C COMPILER\C COMPILER\DEBUG\LEXER.OBJ
^C:\USERS\ROY-W\ONEDRIVE\מסמכים\MAGSHIMIM\FINAL PROJECT\COMPILER\C COMPILER\C COMPILER\LEXER.CPP|C:\USERS\ROY-W\ONEDRIVE\מסמכים\MAGSHIMIM\FINAL PROJECT\COMPILER\C COMPILER\C COMPILER\MAIN.CPP|C:\USERS\ROY-W\ONEDRIVE\מסמכים\MAGSHIMIM\FINAL PROJECT\COMPILER\C COMPILER\C COMPILER\TOKEN.CPP
C:\USERS\ROY-W\ONEDRIVE\מסמכים\MAGSHIMIM\FINAL PROJECT\COMPILER\C COMPILER\C COMPILER\DEBUG\VC142.PDB
C:\USERS\ROY-W\ONEDRIVE\מסמכים\MAGSHIMIM\FINAL PROJECT\COMPILER\C COMPILER\C COMPILER\DEBUG\VC142.IDB
C:\USERS\ROY-W\ONEDRIVE\מסמכים\MAGSHIMIM\FINAL PROJECT\COMPILER\C COMPILER\C COMPILER\DEBUG\MAIN.OBJ
C:\USERS\ROY-W\ONEDRIVE\מסמכים\MAGSHIMIM\FINAL PROJECT\COMPILER\C COMPILER\C COMPILER\DEBUG\TOKEN.OBJ
C:\USERS\ROY-W\ONEDRIVE\מסמכים\MAGSHIMIM\FINAL PROJECT\COMPILER\C COMPILER\C COMPILER\DEBUG\LEXER.OBJ
^C:\USERS\ROY-W\ONEDRIVE\מסמכים\MAGSHIMIM\FINAL PROJECT\COMPILER\C COMPILER\C COMPILER\ABSTRACTSYNTAXTREE.CPP|C:\USERS\ROY-W\ONEDRIVE\מסמכים\MAGSHIMIM\FINAL PROJECT\COMPILER\C COMPILER\C COMPILER\LEXER.CPP|C:\USERS\ROY-W\ONEDRIVE\מסמכים\MAGSHIMIM\FINAL PROJECT\COMPILER\C COMPILER\C COMPILER\MAIN.CPP|C:\USERS\ROY-W\ONEDRIVE\מסמכים\MAGSHIMIM\FINAL PROJECT\COMPILER\C COMPILER\C COMPILER\PROGRAMNODE.CPP
C:\USERS\ROY-W\ONEDRIVE\מסמכים\MAGSHIMIM\FINAL PROJECT\COMPILER\C COMPILER\C COMPILER\DEBUG\VC142.PDB
C:\USERS\ROY-W\ONEDRIVE\מסמכים\MAGSHIMIM\FINAL PROJECT\COMPILER\C COMPILER\C COMPILER\DEBUG\VC142.IDB
C:\USERS\ROY-W\ONEDRIVE\מסמכים\MAGSHIMIM\FINAL PROJECT\COMPILER\C COMPILER\C COMPILER\DEBUG\PROGRAMNODE.OBJ
C:\USERS\ROY-W\ONEDRIVE\מסמכים\MAGSHIMIM\FINAL PROJECT\COMPILER\C COMPILER\C COMPILER\DEBUG\MAIN.OBJ
C:\USERS\ROY-W\ONEDRIVE\מסמכים\MAGSHIMIM\FINAL PROJECT\COMPILER\C COMPILER\C COMPILER\DEBUG\LEXER.OBJ
C:\USERS\ROY-W\ONEDRIVE\מסמכים\MAGSHIMIM\FINAL PROJECT\COMPILER\C COMPILER\C COMPILER\DEBUG\ABSTRACTSYNTAXTREE.OBJ
^C:\USERS\ROY-W\ONEDRIVE\מסמכים\MAGSHIMIM\FINAL PROJECT\COMPILER\C COMPILER\C COMPILER\ABSTRACTSYNTAXTREENODE.CPP|C:\USERS\ROY-W\ONEDRIVE\מסמכים\MAGSHIMIM\FINAL PROJECT\COMPILER\C COMPILER\C COMPILER\BLOCKNODE.CPP|C:\USERS\ROY-W\ONEDRIVE\מסמכים\MAGSHIMIM\FINAL PROJECT\COMPILER\C COMPILER\C COMPILER\FUNCTIONNODE.CPP|C:\USERS\ROY-W\ONEDRIVE\מסמכים\MAGSHIMIM\FINAL PROJECT\COMPILER\C COMPILER\C COMPILER\INTVALUENODE.CPP|C:\USERS\ROY-W\ONEDRIVE\מסמכים\MAGSHIMIM\FINAL PROJECT\COMPILER\C COMPILER\C COMPILER\MAIN.CPP|C:\USERS\ROY-W\ONEDRIVE\מסמכים\MAGSHIMIM\FINAL PROJECT\COMPILER\C COMPILER\C COMPILER\PROGRAMNODE.CPP|C:\USERS\ROY-W\ONEDRIVE\מסמכים\MAGSHIMIM\FINAL PROJECT\COMPILER\C COMPILER\C COMPILER\RETURNNODE.CPP|C:\USERS\ROY-W\ONEDRIVE\מסמכים\MAGSHIMIM\FINAL PROJECT\COMPILER\C COMPILER\C COMPILER\VALUENODE.CPP
C:\USERS\ROY-W\ONEDRIVE\מסמכים\MAGSHIMIM\FINAL PROJECT\COMPILER\C COMPILER\C COMPILER\DEBUG\VC142.PDB
C:\USERS\ROY-W\ONEDRIVE\מסמכים\MAGSHIMIM\FINAL PROJECT\COMPILER\C COMPILER\C COMPILER\DEBUG\VC142.IDB
C:\USERS\ROY-W\ONEDRIVE\מסמכים\MAGSHIMIM\FINAL PROJECT\COMPILER\C COMPILER\C COMPILER\DEBUG\MAIN.OBJ
C:\USERS\ROY-W\ONEDRIVE\מסמכים\MAGSHIMIM\FINAL PROJECT\COMPILER\C COMPILER\C COMPILER\DEBUG\VALUENODE.OBJ
C:\USERS\ROY-W\ONEDRIVE\מסמכים\MAGSHIMIM\FINAL PROJECT\COMPILER\C COMPILER\C COMPILER\DEBUG\PROGRAMNODE.OBJ
C:\USERS\ROY-W\ONEDRIVE\מסמכים\MAGSHIMIM\FINAL PROJECT\COMPILER\C COMPILER\C COMPILER\DEBUG\INTVALUENODE.OBJ
C:\USERS\ROY-W\ONEDRIVE\מסמכים\MAGSHIMIM\FINAL PROJECT\COMPILER\C COMPILER\C COMPILER\DEBUG\FUNCTIONNODE.OBJ
C:\USERS\ROY-W\ONEDRIVE\מסמכים\MAGSHIMIM\FINAL PROJECT\COMPILER\C COMPILER\C COMPILER\DEBUG\ABSTRACTSYNTAXTREENODE.OBJ
^C:\USERS\ROY-W\ONEDRIVE\מסמכים\MAGSHIMIM\FINAL PROJECT\COMPILER\C COMPILER\C COMPILER\BLOCKNODE.CPP|C:\USERS\ROY-W\ONEDRIVE\מסמכים\MAGSHIMIM\FINAL PROJECT\COMPILER\C COMPILER\C COMPILER\FUNCTIONNODE.CPP|C:\USERS\ROY-W\ONEDRIVE\מסמכים\MAGSHIMIM\FINAL PROJECT\COMPILER\C COMPILER\C COMPILER\MAIN.CPP|C:\USERS\ROY-W\ONEDRIVE\מסמכים\MAGSHIMIM\FINAL PROJECT\COMPILER\C COMPILER\C COMPILER\RETURNNODE.CPP|C:\USERS\ROY-W\ONEDRIVE\מסמכים\MAGSHIMIM\FINAL PROJECT\COMPILER\C COMPILER\C COMPILER\VALUENODE.CPP
C:\USERS\ROY-W\ONEDRIVE\מסמכים\MAGSHIMIM\FINAL PROJECT\COMPILER\C COMPILER\C COMPILER\DEBUG\VC142.PDB
C:\USERS\ROY-W\ONEDRIVE\מסמכים\MAGSHIMIM\FINAL PROJECT\COMPILER\C COMPILER\C COMPILER\DEBUG\VC142.IDB
C:\USERS\ROY-W\ONEDRIVE\מסמכים\MAGSHIMIM\FINAL PROJECT\COMPILER\C COMPILER\C COMPILER\DEBUG\VALUENODE.OBJ
C:\USERS\ROY-W\ONEDRIVE\מסמכים\MAGSHIMIM\FINAL PROJECT\COMPILER\C COMPILER\C COMPILER\DEBUG\MAIN.OBJ
C:\USERS\ROY-W\ONEDRIVE\מסמכים\MAGSHIMIM\FINAL PROJECT\COMPILER\C COMPILER\C COMPILER\DEBUG\FUNCTIONNODE.OBJ
C:\USERS\ROY-W\ONEDRIVE\מסמכים\MAGSHIMIM\FINAL PROJECT\COMPILER\C COMPILER\C COMPILER\DEBUG\BLOCKNODE.OBJ
^C:\USERS\ROY-W\ONEDRIVE\מסמכים\MAGSHIMIM\FINAL PROJECT\COMPILER\C COMPILER\C COMPILER\BLOCKNODE.CPP|C:\USERS\ROY-W\ONEDRIVE\מסמכים\MAGSHIMIM\FINAL PROJECT\COMPILER\C COMPILER\C COMPILER\FUNCTIONNODE.CPP|C:\USERS\ROY-W\ONEDRIVE\מסמכים\MAGSHIMIM\FINAL PROJECT\COMPILER\C COMPILER\C COMPILER\MAIN.CPP|C:\USERS\ROY-W\ONEDRIVE\מסמכים\MAGSHIMIM\FINAL PROJECT\COMPILER\C COMPILER\C COMPILER\PROGRAMNODE.CPP
C:\USERS\ROY-W\ONEDRIVE\מסמכים\MAGSHIMIM\FINAL PROJECT\COMPILER\C COMPILER\C COMPILER\DEBUG\VC142.PDB
C:\USERS\ROY-W\ONEDRIVE\מסמכים\MAGSHIMIM\FINAL PROJECT\COMPILER\C COMPILER\C COMPILER\DEBUG\VC142.IDB
C:\USERS\ROY-W\ONEDRIVE\מסמכים\MAGSHIMIM\FINAL PROJECT\COMPILER\C COMPILER\C COMPILER\DEBUG\MAIN.OBJ
C:\USERS\ROY-W\ONEDRIVE\מסמכים\MAGSHIMIM\FINAL PROJECT\COMPILER\C COMPILER\C COMPILER\DEBUG\PROGRAMNODE.OBJ
C:\USERS\ROY-W\ONEDRIVE\מסמכים\MAGSHIMIM\FINAL PROJECT\COMPILER\C COMPILER\C COMPILER\DEBUG\FUNCTIONNODE.OBJ
C:\USERS\ROY-W\ONEDRIVE\מסמכים\MAGSHIMIM\FINAL PROJECT\COMPILER\C COMPILER\C COMPILER\DEBUG\BLOCKNODE.OBJ
^C:\USERS\ROY-W\ONEDRIVE\מסמכים\MAGSHIMIM\FINAL PROJECT\COMPILER\C COMPILER\C COMPILER\ABSTRACTSYNTAXTREENODE.CPP|C:\USERS\ROY-W\ONEDRIVE\מסמכים\MAGSHIMIM\FINAL PROJECT\COMPILER\C COMPILER\C COMPILER\BLOCKNODE.CPP|C:\USERS\ROY-W\ONEDRIVE\מסמכים\MAGSHIMIM\FINAL PROJECT\COMPILER\C COMPILER\C COMPILER\FUNCTIONNODE.CPP|C:\USERS\ROY-W\ONEDRIVE\מסמכים\MAGSHIMIM\FINAL PROJECT\COMPILER\C COMPILER\C COMPILER\MAIN.CPP|C:\USERS\ROY-W\ONEDRIVE\מסמכים\MAGSHIMIM\FINAL PROJECT\COMPILER\C COMPILER\C COMPILER\PROGRAMNODE.CPP|C:\USERS\ROY-W\ONEDRIVE\מסמכים\MAGSHIMIM\FINAL PROJECT\COMPILER\C COMPILER\C COMPILER\RETURNNODE.CPP|C:\USERS\ROY-W\ONEDRIVE\מסמכים\MAGSHIMIM\FINAL PROJECT\COMPILER\C COMPILER\C COMPILER\VALUENODE.CPP
C:\USERS\ROY-W\ONEDRIVE\מסמכים\MAGSHIMIM\FINAL PROJECT\COMPILER\C COMPILER\C COMPILER\DEBUG\VC142.PDB
C:\USERS\ROY-W\ONEDRIVE\מסמכים\MAGSHIMIM\FINAL PROJECT\COMPILER\C COMPILER\C COMPILER\DEBUG\VC142.IDB
C:\USERS\ROY-W\ONEDRIVE\מסמכים\MAGSHIMIM\FINAL PROJECT\COMPILER\C COMPILER\C COMPILER\DEBUG\MAIN.OBJ
C:\USERS\ROY-W\ONEDRIVE\מסמכים\MAGSHIMIM\FINAL PROJECT\COMPILER\C COMPILER\C COMPILER\DEBUG\VALUENODE.OBJ
C:\USERS\ROY-W\ONEDRIVE\מסמכים\MAGSHIMIM\FINAL PROJECT\COMPILER\C COMPILER\C COMPILER\DEBUG\RETURNNODE.OBJ
C:\USERS\ROY-W\ONEDRIVE\מסמכים\MAGSHIMIM\FINAL PROJECT\COMPILER\C COMPILER\C COMPILER\DEBUG\PROGRAMNODE.OBJ
C:\USERS\ROY-W\ONEDRIVE\מסמכים\MAGSHIMIM\FINAL PROJECT\COMPILER\C COMPILER\C COMPILER\DEBUG\FUNCTIONNODE.OBJ
C:\USERS\ROY-W\ONEDRIVE\מסמכים\MAGSHIMIM\FINAL PROJECT\COMPILER\C COMPILER\C COMPILER\DEBUG\BLOCKNODE.OBJ
C:\USERS\ROY-W\ONEDRIVE\מסמכים\MAGSHIMIM\FINAL PROJECT\COMPILER\C COMPILER\C COMPILER\DEBUG\ABSTRACTSYNTAXTREENODE.OBJ
^C:\USERS\ROY-W\ONEDRIVE\מסמכים\MAGSHIMIM\FINAL PROJECT\COMPILER\C COMPILER\C COMPILER\BLOCKNODE.CPP|C:\USERS\ROY-W\ONEDRIVE\מסמכים\MAGSHIMIM\FINAL PROJECT\COMPILER\C COMPILER\C COMPILER\FUNCTIONNODE.CPP|C:\USERS\ROY-W\ONEDRIVE\מסמכים\MAGSHIMIM\FINAL PROJECT\COMPILER\C COMPILER\C COMPILER\MAIN.CPP|C:\USERS\ROY-W\ONEDRIVE\מסמכים\MAGSHIMIM\FINAL PROJECT\COMPILER\C COMPILER\C COMPILER\PROGRAMNODE.CPP|C:\USERS\ROY-W\ONEDRIVE\מסמכים\MAGSHIMIM\FINAL PROJECT\COMPILER\C COMPILER\C COMPILER\RETURNNODE.CPP
C:\USERS\ROY-W\ONEDRIVE\מסמכים\MAGSHIMIM\FINAL PROJECT\COMPILER\C COMPILER\C COMPILER\DEBUG\VC142.PDB
C:\USERS\ROY-W\ONEDRIVE\מסמכים\MAGSHIMIM\FINAL PROJECT\COMPILER\C COMPILER\C COMPILER\DEBUG\VC142.IDB
C:\USERS\ROY-W\ONEDRIVE\מסמכים\MAGSHIMIM\FINAL PROJECT\COMPILER\C COMPILER\C COMPILER\DEBUG\MAIN.OBJ
C:\USERS\ROY-W\ONEDRIVE\מסמכים\MAGSHIMIM\FINAL PROJECT\COMPILER\C COMPILER\C COMPILER\DEBUG\RETURNNODE.OBJ
C:\USERS\ROY-W\ONEDRIVE\מסמכים\MAGSHIMIM\FINAL PROJECT\COMPILER\C COMPILER\C COMPILER\DEBUG\PROGRAMNODE.OBJ
C:\USERS\ROY-W\ONEDRIVE\מסמכים\MAGSHIMIM\FINAL PROJECT\COMPILER\C COMPILER\C COMPILER\DEBUG\FUNCTIONNODE.OBJ
C:\USERS\ROY-W\ONEDRIVE\מסמכים\MAGSHIMIM\FINAL PROJECT\COMPILER\C COMPILER\C COMPILER\DEBUG\BLOCKNODE.OBJ
^C:\USERS\ROY-W\ONEDRIVE\מסמכים\MAGSHIMIM\FINAL PROJECT\COMPILER\C COMPILER\C COMPILER\BLOCKNODE.CPP|C:\USERS\ROY-W\ONEDRIVE\מסמכים\MAGSHIMIM\FINAL PROJECT\COMPILER\C COMPILER\C COMPILER\MAIN.CPP|C:\USERS\ROY-W\ONEDRIVE\מסמכים\MAGSHIMIM\FINAL PROJECT\COMPILER\C COMPILER\C COMPILER\RETURNNODE.CPP|C:\USERS\ROY-W\ONEDRIVE\מסמכים\MAGSHIMIM\FINAL PROJECT\COMPILER\C COMPILER\C COMPILER\VALUENODE.CPP
C:\USERS\ROY-W\ONEDRIVE\מסמכים\MAGSHIMIM\FINAL PROJECT\COMPILER\C COMPILER\C COMPILER\DEBUG\VC142.PDB
C:\USERS\ROY-W\ONEDRIVE\מסמכים\MAGSHIMIM\FINAL PROJECT\COMPILER\C COMPILER\C COMPILER\DEBUG\VC142.IDB
C:\USERS\ROY-W\ONEDRIVE\מסמכים\MAGSHIMIM\FINAL PROJECT\COMPILER\C COMPILER\C COMPILER\DEBUG\MAIN.OBJ
C:\USERS\ROY-W\ONEDRIVE\מסמכים\MAGSHIMIM\FINAL PROJECT\COMPILER\C COMPILER\C COMPILER\DEBUG\BLOCKNODE.OBJ
^C:\USERS\ROY-W\ONEDRIVE\מסמכים\MAGSHIMIM\FINAL PROJECT\COMPILER\C COMPILER\C COMPILER\RETURNNODE.CPP|C:\USERS\ROY-W\ONEDRIVE\מסמכים\MAGSHIMIM\FINAL PROJECT\COMPILER\C COMPILER\C COMPILER\VALUENODE.CPP
C:\USERS\ROY-W\ONEDRIVE\מסמכים\MAGSHIMIM\FINAL PROJECT\COMPILER\C COMPILER\C COMPILER\DEBUG\VC142.PDB
C:\USERS\ROY-W\ONEDRIVE\מסמכים\MAGSHIMIM\FINAL PROJECT\COMPILER\C COMPILER\C COMPILER\DEBUG\VC142.IDB
C:\USERS\ROY-W\ONEDRIVE\מסמכים\MAGSHIMIM\FINAL PROJECT\COMPILER\C COMPILER\C COMPILER\DEBUG\RETURNNODE.OBJ
^C:\USERS\ROY-W\ONEDRIVE\מסמכים\MAGSHIMIM\FINAL PROJECT\COMPILER\C COMPILER\C COMPILER\ABSTRACTSYNTAXTREENODE.CPP|C:\USERS\ROY-W\ONEDRIVE\מסמכים\MAGSHIMIM\FINAL PROJECT\COMPILER\C COMPILER\C COMPILER\BLOCKNODE.CPP|C:\USERS\ROY-W\ONEDRIVE\מסמכים\MAGSHIMIM\FINAL PROJECT\COMPILER\C COMPILER\C COMPILER\CONDITIONNODE.CPP|C:\USERS\ROY-W\ONEDRIVE\מסמכים\MAGSHIMIM\FINAL PROJECT\COMPILER\C COMPILER\C COMPILER\FUNCTIONNODE.CPP|C:\USERS\ROY-W\ONEDRIVE\מסמכים\MAGSHIMIM\FINAL PROJECT\COMPILER\C COMPILER\C COMPILER\IFNODE.CPP|C:\USERS\ROY-W\ONEDRIVE\מסמכים\MAGSHIMIM\FINAL PROJECT\COMPILER\C COMPILER\C COMPILER\LEXER.CPP|C:\USERS\ROY-W\ONEDRIVE\מסמכים\MAGSHIMIM\FINAL PROJECT\COMPILER\C COMPILER\C COMPILER\MAIN.CPP|C:\USERS\ROY-W\ONEDRIVE\מסמכים\MAGSHIMIM\FINAL PROJECT\COMPILER\C COMPILER\C COMPILER\PROGRAMNODE.CPP|C:\USERS\ROY-W\ONEDRIVE\מסמכים\MAGSHIMIM\FINAL PROJECT\COMPILER\C COMPILER\C COMPILER\RETURNNODE.CPP|C:\USERS\ROY-W\ONEDRIVE\מסמכים\MAGSHIMIM\FINAL PROJECT\COMPILER\C COMPILER\C COMPILER\TOKEN.CPP|C:\USERS\ROY-W\ONEDRIVE\מסמכים\MAGSHIMIM\FINAL PROJECT\COMPILER\C COMPILER\C COMPILER\VALUENODE.CPP
C:\USERS\ROY-W\ONEDRIVE\מסמכים\MAGSHIMIM\FINAL PROJECT\COMPILER\C COMPILER\C COMPILER\DEBUG\VC142.PDB
C:\USERS\ROY-W\ONEDRIVE\מסמכים\MAGSHIMIM\FINAL PROJECT\COMPILER\C COMPILER\C COMPILER\DEBUG\VC142.IDB
C:\USERS\ROY-W\ONEDRIVE\מסמכים\MAGSHIMIM\FINAL PROJECT\COMPILER\C COMPILER\C COMPILER\DEBUG\TOKEN.OBJ
C:\USERS\ROY-W\ONEDRIVE\מסמכים\MAGSHIMIM\FINAL PROJECT\COMPILER\C COMPILER\C COMPILER\DEBUG\LEXER.OBJ
C:\USERS\ROY-W\ONEDRIVE\מסמכים\MAGSHIMIM\FINAL PROJECT\COMPILER\C COMPILER\C COMPILER\DEBUG\ABSTRACTSYNTAXTREENODE.OBJ
^C:\USERS\ROY-W\ONEDRIVE\מסמכים\MAGSHIMIM\FINAL PROJECT\COMPILER\C COMPILER\C COMPILER\ABSTRACTSYNTAXTREENODE.CPP
C:\USERS\ROY-W\ONEDRIVE\מסמכים\MAGSHIMIM\FINAL PROJECT\COMPILER\C COMPILER\C COMPILER\DEBUG\ABSTRACTSYNTAXTREENODE.OBJ
^C:\USERS\ROY-W\ONEDRIVE\מסמכים\MAGSHIMIM\FINAL PROJECT\COMPILER\C COMPILER\C COMPILER\TOKEN.CPP
C:\USERS\ROY-W\ONEDRIVE\מסמכים\MAGSHIMIM\FINAL PROJECT\COMPILER\C COMPILER\C COMPILER\DEBUG\TOKEN.OBJ
^C:\USERS\ROY-W\ONEDRIVE\מסמכים\MAGSHIMIM\FINAL PROJECT\COMPILER\C COMPILER\C COMPILER\BLOCKNODE.CPP|C:\USERS\ROY-W\ONEDRIVE\מסמכים\MAGSHIMIM\FINAL PROJECT\COMPILER\C COMPILER\C COMPILER\FUNCTIONNODE.CPP|C:\USERS\ROY-W\ONEDRIVE\מסמכים\MAGSHIMIM\FINAL PROJECT\COMPILER\C COMPILER\C COMPILER\MAIN.CPP|C:\USERS\ROY-W\ONEDRIVE\מסמכים\MAGSHIMIM\FINAL PROJECT\COMPILER\C COMPILER\C COMPILER\PROGRAMNODE.CPP|C:\USERS\ROY-W\ONEDRIVE\מסמכים\MAGSHIMIM\FINAL PROJECT\COMPILER\C COMPILER\C COMPILER\RETURNNODE.CPP|C:\USERS\ROY-W\ONEDRIVE\מסמכים\MAGSHIMIM\FINAL PROJECT\COMPILER\C COMPILER\C COMPILER\VALUENODE.CPP
C:\USERS\ROY-W\ONEDRIVE\מסמכים\MAGSHIMIM\FINAL PROJECT\COMPILER\C COMPILER\C COMPILER\DEBUG\VC142.PDB
C:\USERS\ROY-W\ONEDRIVE\מסמכים\MAGSHIMIM\FINAL PROJECT\COMPILER\C COMPILER\C COMPILER\DEBUG\VC142.IDB
C:\USERS\ROY-W\ONEDRIVE\מסמכים\MAGSHIMIM\FINAL PROJECT\COMPILER\C COMPILER\C COMPILER\DEBUG\VALUENODE.OBJ
C:\USERS\ROY-W\ONEDRIVE\מסמכים\MAGSHIMIM\FINAL PROJECT\COMPILER\C COMPILER\C COMPILER\DEBUG\RETURNNODE.OBJ
^C:\USERS\ROY-W\ONEDRIVE\מסמכים\MAGSHIMIM\FINAL PROJECT\COMPILER\C COMPILER\C COMPILER\BLOCKNODE.CPP|C:\USERS\ROY-W\ONEDRIVE\מסמכים\MAGSHIMIM\FINAL PROJECT\COMPILER\C COMPILER\C COMPILER\CONDITIONNODE.CPP|C:\USERS\ROY-W\ONEDRIVE\מסמכים\MAGSHIMIM\FINAL PROJECT\COMPILER\C COMPILER\C COMPILER\FUNCTIONNODE.CPP|C:\USERS\ROY-W\ONEDRIVE\מסמכים\MAGSHIMIM\FINAL PROJECT\COMPILER\C COMPILER\C COMPILER\IFNODE.CPP|C:\USERS\ROY-W\ONEDRIVE\מסמכים\MAGSHIMIM\FINAL PROJECT\COMPILER\C COMPILER\C COMPILER\MAIN.CPP|C:\USERS\ROY-W\ONEDRIVE\מסמכים\MAGSHIMIM\FINAL PROJECT\COMPILER\C COMPILER\C COMPILER\PROGRAMNODE.CPP|C:\USERS\ROY-W\ONEDRIVE\מסמכים\MAGSHIMIM\FINAL PROJECT\COMPILER\C COMPILER\C COMPILER\RETURNNODE.CPP|C:\USERS\ROY-W\ONEDRIVE\מסמכים\MAGSHIMIM\FINAL PROJECT\COMPILER\C COMPILER\C COMPILER\VALUENODE.CPP
C:\USERS\ROY-W\ONEDRIVE\מסמכים\MAGSHIMIM\FINAL PROJECT\COMPILER\C COMPILER\C COMPILER\DEBUG\VC142.PDB
C:\USERS\ROY-W\ONEDRIVE\מסמכים\MAGSHIMIM\FINAL PROJECT\COMPILER\C COMPILER\C COMPILER\DEBUG\VC142.IDB
C:\USERS\ROY-W\ONEDRIVE\מסמכים\MAGSHIMIM\FINAL PROJECT\COMPILER\C COMPILER\C COMPILER\DEBUG\VALUENODE.OBJ
C:\USERS\ROY-W\ONEDRIVE\מסמכים\MAGSHIMIM\FINAL PROJECT\COMPILER\C COMPILER\C COMPILER\DEBUG\RETURNNODE.OBJ
C:\USERS\ROY-W\ONEDRIVE\מסמכים\MAGSHIMIM\FINAL PROJECT\COMPILER\C COMPILER\C COMPILER\DEBUG\IFNODE.OBJ
C:\USERS\ROY-W\ONEDRIVE\מסמכים\MAGSHIMIM\FINAL PROJECT\COMPILER\C COMPILER\C COMPILER\DEBUG\CONDITIONNODE.OBJ
^C:\USERS\ROY-W\ONEDRIVE\מסמכים\MAGSHIMIM\FINAL PROJECT\COMPILER\C COMPILER\C COMPILER\CONDITIONNODE.CPP
C:\USERS\ROY-W\ONEDRIVE\מסמכים\MAGSHIMIM\FINAL PROJECT\COMPILER\C COMPILER\C COMPILER\DEBUG\CONDITIONNODE.OBJ
^C:\USERS\ROY-W\ONEDRIVE\מסמכים\MAGSHIMIM\FINAL PROJECT\COMPILER\C COMPILER\C COMPILER\BLOCKNODE.CPP|C:\USERS\ROY-W\ONEDRIVE\מסמכים\MAGSHIMIM\FINAL PROJECT\COMPILER\C COMPILER\C COMPILER\FUNCTIONNODE.CPP|C:\USERS\ROY-W\ONEDRIVE\מסמכים\MAGSHIMIM\FINAL PROJECT\COMPILER\C COMPILER\C COMPILER\IFNODE.CPP|C:\USERS\ROY-W\ONEDRIVE\מסמכים\MAGSHIMIM\FINAL PROJECT\COMPILER\C COMPILER\C COMPILER\MAIN.CPP|C:\USERS\ROY-W\ONEDRIVE\מסמכים\MAGSHIMIM\FINAL PROJECT\COMPILER\C COMPILER\C COMPILER\PROGRAMNODE.CPP|C:\USERS\ROY-W\ONEDRIVE\מסמכים\MAGSHIMIM\FINAL PROJECT\COMPILER\C COMPILER\C COMPILER\RETURNNODE.CPP|C:\USERS\ROY-W\ONEDRIVE\מסמכים\MAGSHIMIM\FINAL PROJECT\COMPILER\C COMPILER\C COMPILER\VALUENODE.CPP
C:\USERS\ROY-W\ONEDRIVE\מסמכים\MAGSHIMIM\FINAL PROJECT\COMPILER\C COMPILER\C COMPILER\DEBUG\VC142.PDB
C:\USERS\ROY-W\ONEDRIVE\מסמכים\MAGSHIMIM\FINAL PROJECT\COMPILER\C COMPILER\C COMPILER\DEBUG\VC142.IDB
C:\USERS\ROY-W\ONEDRIVE\מסמכים\MAGSHIMIM\FINAL PROJECT\COMPILER\C COMPILER\C COMPILER\DEBUG\VALUENODE.OBJ
C:\USERS\ROY-W\ONEDRIVE\מסמכים\MAGSHIMIM\FINAL PROJECT\COMPILER\C COMPILER\C COMPILER\DEBUG\RETURNNODE.OBJ
C:\USERS\ROY-W\ONEDRIVE\מסמכים\MAGSHIMIM\FINAL PROJECT\COMPILER\C COMPILER\C COMPILER\DEBUG\MAIN.OBJ
C:\USERS\ROY-W\ONEDRIVE\מסמכים\MAGSHIMIM\FINAL PROJECT\COMPILER\C COMPILER\C COMPILER\DEBUG\BLOCKNODE.OBJ
^C:\USERS\ROY-W\ONEDRIVE\מסמכים\MAGSHIMIM\FINAL PROJECT\COMPILER\C COMPILER\C COMPILER\RETURNNODE.CPP
C:\USERS\ROY-W\ONEDRIVE\מסמכים\MAGSHIMIM\FINAL PROJECT\COMPILER\C COMPILER\C COMPILER\DEBUG\RETURNNODE.OBJ
^C:\USERS\ROY-W\ONEDRIVE\מסמכים\MAGSHIMIM\FINAL PROJECT\COMPILER\C COMPILER\C COMPILER\FUNCTIONNODE.CPP|C:\USERS\ROY-W\ONEDRIVE\מסמכים\MAGSHIMIM\FINAL PROJECT\COMPILER\C COMPILER\C COMPILER\IFNODE.CPP|C:\USERS\ROY-W\ONEDRIVE\מסמכים\MAGSHIMIM\FINAL PROJECT\COMPILER\C COMPILER\C COMPILER\MAIN.CPP|C:\USERS\ROY-W\ONEDRIVE\מסמכים\MAGSHIMIM\FINAL PROJECT\COMPILER\C COMPILER\C COMPILER\PROGRAMNODE.CPP|C:\USERS\ROY-W\ONEDRIVE\מסמכים\MAGSHIMIM\FINAL PROJECT\COMPILER\C COMPILER\C COMPILER\VALUENODE.CPP
C:\USERS\ROY-W\ONEDRIVE\מסמכים\MAGSHIMIM\FINAL PROJECT\COMPILER\C COMPILER\C COMPILER\DEBUG\VC142.PDB
C:\USERS\ROY-W\ONEDRIVE\מסמכים\MAGSHIMIM\FINAL PROJECT\COMPILER\C COMPILER\C COMPILER\DEBUG\VC142.IDB
C:\USERS\ROY-W\ONEDRIVE\מסמכים\MAGSHIMIM\FINAL PROJECT\COMPILER\C COMPILER\C COMPILER\DEBUG\VALUENODE.OBJ
C:\USERS\ROY-W\ONEDRIVE\מסמכים\MAGSHIMIM\FINAL PROJECT\COMPILER\C COMPILER\C COMPILER\DEBUG\PROGRAMNODE.OBJ
C:\USERS\ROY-W\ONEDRIVE\מסמכים\MAGSHIMIM\FINAL PROJECT\COMPILER\C COMPILER\C COMPILER\DEBUG\MAIN.OBJ
C:\USERS\ROY-W\ONEDRIVE\מסמכים\MAGSHIMIM\FINAL PROJECT\COMPILER\C COMPILER\C COMPILER\DEBUG\FUNCTIONNODE.OBJ
^C:\USERS\ROY-W\ONEDRIVE\מסמכים\MAGSHIMIM\FINAL PROJECT\COMPILER\C COMPILER\C COMPILER\IFNODE.CPP|C:\USERS\ROY-W\ONEDRIVE\מסמכים\MAGSHIMIM\FINAL PROJECT\COMPILER\C COMPILER\C COMPILER\MAIN.CPP|C:\USERS\ROY-W\ONEDRIVE\מסמכים\MAGSHIMIM\FINAL PROJECT\COMPILER\C COMPILER\C COMPILER\VALUENODE.CPP
C:\USERS\ROY-W\ONEDRIVE\מסמכים\MAGSHIMIM\FINAL PROJECT\COMPILER\C COMPILER\C COMPILER\DEBUG\VC142.PDB
C:\USERS\ROY-W\ONEDRIVE\מסמכים\MAGSHIMIM\FINAL PROJECT\COMPILER\C COMPILER\C COMPILER\DEBUG\VC142.IDB
C:\USERS\ROY-W\ONEDRIVE\מסמכים\MAGSHIMIM\FINAL PROJECT\COMPILER\C COMPILER\C COMPILER\DEBUG\VALUENODE.OBJ
C:\USERS\ROY-W\ONEDRIVE\מסמכים\MAGSHIMIM\FINAL PROJECT\COMPILER\C COMPILER\C COMPILER\DEBUG\MAIN.OBJ
C:\USERS\ROY-W\ONEDRIVE\מסמכים\MAGSHIMIM\FINAL PROJECT\COMPILER\C COMPILER\C COMPILER\DEBUG\IFNODE.OBJ
^C:\USERS\ROY-W\ONEDRIVE\מסמכים\MAGSHIMIM\FINAL PROJECT\COMPILER\C COMPILER\C COMPILER\VALUENODE.CPP
C:\USERS\ROY-W\ONEDRIVE\מסמכים\MAGSHIMIM\FINAL PROJECT\COMPILER\C COMPILER\C COMPILER\DEBUG\VC142.PDB
^C:\USERS\ROY-W\ONEDRIVE\מסמכים\MAGSHIMIM\FINAL PROJECT\COMPILER\C COMPILER\C COMPILER\LEXER.CPP|C:\USERS\ROY-W\ONEDRIVE\מסמכים\MAGSHIMIM\FINAL PROJECT\COMPILER\C COMPILER\C COMPILER\MAIN.CPP
C:\USERS\ROY-W\ONEDRIVE\מסמכים\MAGSHIMIM\FINAL PROJECT\COMPILER\C COMPILER\C COMPILER\DEBUG\VC142.PDB
C:\USERS\ROY-W\ONEDRIVE\מסמכים\MAGSHIMIM\FINAL PROJECT\COMPILER\C COMPILER\C COMPILER\DEBUG\VC142.IDB
C:\USERS\ROY-W\ONEDRIVE\מסמכים\MAGSHIMIM\FINAL PROJECT\COMPILER\C COMPILER\C COMPILER\DEBUG\MAIN.OBJ
C:\USERS\ROY-W\ONEDRIVE\מסמכים\MAGSHIMIM\FINAL PROJECT\COMPILER\C COMPILER\C COMPILER\DEBUG\LEXER.OBJ
^C:\USERS\ROY-W\ONEDRIVE\מסמכים\MAGSHIMIM\FINAL PROJECT\COMPILER\C COMPILER\C COMPILER\LEXER.CPP
C:\USERS\ROY-W\ONEDRIVE\מסמכים\MAGSHIMIM\FINAL PROJECT\COMPILER\C COMPILER\C COMPILER\DEBUG\VC142.PDB
^C:\USERS\ROY-W\ONEDRIVE\מסמכים\MAGSHIMIM\FINAL PROJECT\COMPILER\C COMPILER\C COMPILER\BLOCKNODE.CPP|C:\USERS\ROY-W\ONEDRIVE\מסמכים\MAGSHIMIM\FINAL PROJECT\COMPILER\C COMPILER\C COMPILER\FUNCTIONNODE.CPP|C:\USERS\ROY-W\ONEDRIVE\מסמכים\MAGSHIMIM\FINAL PROJECT\COMPILER\C COMPILER\C COMPILER\IFNODE.CPP|C:\USERS\ROY-W\ONEDRIVE\מסמכים\MAGSHIMIM\FINAL PROJECT\COMPILER\C COMPILER\C COMPILER\MAIN.CPP|C:\USERS\ROY-W\ONEDRIVE\מסמכים\MAGSHIMIM\FINAL PROJECT\COMPILER\C COMPILER\C COMPILER\PROGRAMNODE.CPP|C:\USERS\ROY-W\ONEDRIVE\מסמכים\MAGSHIMIM\FINAL PROJECT\COMPILER\C COMPILER\C COMPILER\VARDECLARATION.CPP
C:\USERS\ROY-W\ONEDRIVE\מסמכים\MAGSHIMIM\FINAL PROJECT\COMPILER\C COMPILER\C COMPILER\DEBUG\VC142.PDB
C:\USERS\ROY-W\ONEDRIVE\מסמכים\MAGSHIMIM\FINAL PROJECT\COMPILER\C COMPILER\C COMPILER\DEBUG\VC142.IDB
C:\USERS\ROY-W\ONEDRIVE\מסמכים\MAGSHIMIM\FINAL PROJECT\COMPILER\C COMPILER\C COMPILER\DEBUG\PROGRAMNODE.OBJ
C:\USERS\ROY-W\ONEDRIVE\מסמכים\MAGSHIMIM\FINAL PROJECT\COMPILER\C COMPILER\C COMPILER\DEBUG\MAIN.OBJ
C:\USERS\ROY-W\ONEDRIVE\מסמכים\MAGSHIMIM\FINAL PROJECT\COMPILER\C COMPILER\C COMPILER\DEBUG\IFNODE.OBJ
C:\USERS\ROY-W\ONEDRIVE\מסמכים\MAGSHIMIM\FINAL PROJECT\COMPILER\C COMPILER\C COMPILER\DEBUG\FUNCTIONNODE.OBJ
C:\USERS\ROY-W\ONEDRIVE\מסמכים\MAGSHIMIM\FINAL PROJECT\COMPILER\C COMPILER\C COMPILER\DEBUG\BLOCKNODE.OBJ
^C:\USERS\ROY-W\ONEDRIVE\מסמכים\MAGSHIMIM\FINAL PROJECT\COMPILER\C COMPILER\C COMPILER\VARDECLARATION.CPP
C:\USERS\ROY-W\ONEDRIVE\מסמכים\MAGSHIMIM\FINAL PROJECT\COMPILER\C COMPILER\C COMPILER\DEBUG\VC142.PDB
C:\USERS\ROY-W\ONEDRIVE\מסמכים\MAGSHIMIM\FINAL PROJECT\COMPILER\C COMPILER\C COMPILER\DEBUG\VC142.IDB
C:\USERS\ROY-W\ONEDRIVE\מסמכים\MAGSHIMIM\FINAL PROJECT\COMPILER\C COMPILER\C COMPILER\DEBUG\VARDECLARATION.OBJ
^C:\USERS\ROY-W\ONEDRIVE\מסמכים\MAGSHIMIM\FINAL PROJECT\COMPILER\C COMPILER\C COMPILER\BLOCKNODE.CPP|C:\USERS\ROY-W\ONEDRIVE\מסמכים\MAGSHIMIM\FINAL PROJECT\COMPILER\C COMPILER\C COMPILER\MAIN.CPP
C:\USERS\ROY-W\ONEDRIVE\מסמכים\MAGSHIMIM\FINAL PROJECT\COMPILER\C COMPILER\C COMPILER\DEBUG\VC142.PDB
C:\USERS\ROY-W\ONEDRIVE\מסמכים\MAGSHIMIM\FINAL PROJECT\COMPILER\C COMPILER\C COMPILER\DEBUG\VC142.IDB
C:\USERS\ROY-W\ONEDRIVE\מסמכים\MAGSHIMIM\FINAL PROJECT\COMPILER\C COMPILER\C COMPILER\DEBUG\MAIN.OBJ
C:\USERS\ROY-W\ONEDRIVE\מסמכים\MAGSHIMIM\FINAL PROJECT\COMPILER\C COMPILER\C COMPILER\DEBUG\BLOCKNODE.OBJ
^C:\USERS\ROY-W\ONEDRIVE\מסמכים\MAGSHIMIM\FINAL PROJECT\COMPILER\C COMPILER\C COMPILER\FUNCTIONNODE.CPP|C:\USERS\ROY-W\ONEDRIVE\מסמכים\MAGSHIMIM\FINAL PROJECT\COMPILER\C COMPILER\C COMPILER\MAIN.CPP|C:\USERS\ROY-W\ONEDRIVE\מסמכים\MAGSHIMIM\FINAL PROJECT\COMPILER\C COMPILER\C COMPILER\PROGRAMNODE.CPP
C:\USERS\ROY-W\ONEDRIVE\מסמכים\MAGSHIMIM\FINAL PROJECT\COMPILER\C COMPILER\C COMPILER\DEBUG\VC142.PDB
C:\USERS\ROY-W\ONEDRIVE\מסמכים\MAGSHIMIM\FINAL PROJECT\COMPILER\C COMPILER\C COMPILER\DEBUG\VC142.IDB
C:\USERS\ROY-W\ONEDRIVE\מסמכים\MAGSHIMIM\FINAL PROJECT\COMPILER\C COMPILER\C COMPILER\DEBUG\MAIN.OBJ
C:\USERS\ROY-W\ONEDRIVE\מסמכים\MAGSHIMIM\FINAL PROJECT\COMPILER\C COMPILER\C COMPILER\DEBUG\PROGRAMNODE.OBJ
C:\USERS\ROY-W\ONEDRIVE\מסמכים\MAGSHIMIM\FINAL PROJECT\COMPILER\C COMPILER\C COMPILER\DEBUG\FUNCTIONNODE.OBJ
^C:\USERS\ROY-W\ONEDRIVE\מסמכים\MAGSHIMIM\FINAL PROJECT\COMPILER\C COMPILER\C COMPILER\BLOCKNODE.CPP|C:\USERS\ROY-W\ONEDRIVE\מסמכים\MAGSHIMIM\FINAL PROJECT\COMPILER\C COMPILER\C COMPILER\FUNCTIONNODE.CPP|C:\USERS\ROY-W\ONEDRIVE\מסמכים\MAGSHIMIM\FINAL PROJECT\COMPILER\C COMPILER\C COMPILER\IFNODE.CPP|C:\USERS\ROY-W\ONEDRIVE\מסמכים\MAGSHIMIM\FINAL PROJECT\COMPILER\C COMPILER\C COMPILER\MAIN.CPP|C:\USERS\ROY-W\ONEDRIVE\מסמכים\MAGSHIMIM\FINAL PROJECT\COMPILER\C COMPILER\C COMPILER\PROGRAMNODE.CPP
C:\USERS\ROY-W\ONEDRIVE\מסמכים\MAGSHIMIM\FINAL PROJECT\COMPILER\C COMPILER\C COMPILER\DEBUG\VC142.PDB
C:\USERS\ROY-W\ONEDRIVE\מסמכים\MAGSHIMIM\FINAL PROJECT\COMPILER\C COMPILER\C COMPILER\DEBUG\VC142.IDB
C:\USERS\ROY-W\ONEDRIVE\מסמכים\MAGSHIMIM\FINAL PROJECT\COMPILER\C COMPILER\C COMPILER\DEBUG\MAIN.OBJ
C:\USERS\ROY-W\ONEDRIVE\מסמכים\MAGSHIMIM\FINAL PROJECT\COMPILER\C COMPILER\C COMPILER\DEBUG\PROGRAMNODE.OBJ
C:\USERS\ROY-W\ONEDRIVE\מסמכים\MAGSHIMIM\FINAL PROJECT\COMPILER\C COMPILER\C COMPILER\DEBUG\IFNODE.OBJ
C:\USERS\ROY-W\ONEDRIVE\מסמכים\MAGSHIMIM\FINAL PROJECT\COMPILER\C COMPILER\C COMPILER\DEBUG\FUNCTIONNODE.OBJ
C:\USERS\ROY-W\ONEDRIVE\מסמכים\MAGSHIMIM\FINAL PROJECT\COMPILER\C COMPILER\C COMPILER\DEBUG\BLOCKNODE.OBJ
^C:\USERS\ROY-W\ONEDRIVE\מסמכים\MAGSHIMIM\FINAL PROJECT\COMPILER\C COMPILER\C COMPILER\BLOCKNODE.CPP
C:\USERS\ROY-W\ONEDRIVE\מסמכים\MAGSHIMIM\FINAL PROJECT\COMPILER\C COMPILER\C COMPILER\DEBUG\VC142.PDB
^C:\USERS\ROY-W\ONEDRIVE\מסמכים\MAGSHIMIM\FINAL PROJECT\COMPILER\C COMPILER\C COMPILER\FUNCTIONNODE.CPP
C:\USERS\ROY-W\ONEDRIVE\מסמכים\MAGSHIMIM\FINAL PROJECT\COMPILER\C COMPILER\C COMPILER\DEBUG\VC142.PDB
^C:\USERS\ROY-W\ONEDRIVE\מסמכים\MAGSHIMIM\FINAL PROJECT\COMPILER\C COMPILER\C COMPILER\IFNODE.CPP
C:\USERS\ROY-W\ONEDRIVE\מסמכים\MAGSHIMIM\FINAL PROJECT\COMPILER\C COMPILER\C COMPILER\DEBUG\VC142.PDB
^C:\USERS\ROY-W\ONEDRIVE\מסמכים\MAGSHIMIM\FINAL PROJECT\COMPILER\C COMPILER\C COMPILER\PROGRAMNODE.CPP
C:\USERS\ROY-W\ONEDRIVE\מסמכים\MAGSHIMIM\FINAL PROJECT\COMPILER\C COMPILER\C COMPILER\DEBUG\VC142.PDB
^C:\USERS\ROY-W\ONEDRIVE\מסמכים\MAGSHIMIM\FINAL PROJECT\COMPILER\C COMPILER\C COMPILER\MAIN.CPP
C:\USERS\ROY-W\ONEDRIVE\מסמכים\MAGSHIMIM\FINAL PROJECT\COMPILER\C COMPILER\C COMPILER\DEBUG\VC142.PDB
