^C:\USERS\ROY-W\ONEDRIVE\מסמכים\MAGSHIMIM\FINAL PROJECT\COMPILER\C COMPILER\C COMPILER\DEBUG\ABSTRACTSYNTAXTREENODE.OBJ|C:\USERS\ROY-W\ONEDRIVE\מסמכים\MAGSHIMIM\FINAL PROJECT\COMPILER\C COMPILER\C COMPILER\DEBUG\BLOCKNODE.OBJ|C:\USERS\ROY-W\ONEDRIVE\מסמכים\MAGSHIMIM\FINAL PROJECT\COMPILER\C COMPILER\C COMPILER\DEBUG\CONDITIONNODE.OBJ|C:\USERS\ROY-W\ONEDRIVE\מסמכים\MAGSHIMIM\FINAL PROJECT\COMPILER\C COMPILER\C COMPILER\DEBUG\FUNCTIONNODE.OBJ|C:\USERS\ROY-W\ONEDRIVE\מסמכים\MAGSHIMIM\FINAL PROJECT\COMPILER\C COMPILER\C COMPILER\DEBUG\IFNODE.OBJ|C:\USERS\ROY-W\ONEDRIVE\מסמכים\MAGSHIMIM\FINAL PROJECT\COMPILER\C COMPILER\C COMPILER\DEBUG\LEXER.OBJ|C:\USERS\ROY-W\ONEDRIVE\מסמכים\MAGSHIMIM\FINAL PROJECT\COMPILER\C COMPILER\C COMPILER\DEBUG\MAIN.OBJ|C:\USERS\ROY-W\ONEDRIVE\מסמכים\MAGSHIMIM\FINAL PROJECT\COMPILER\C COMPILER\C COMPILER\DEBUG\PROGRAMNODE.OBJ|C:\USERS\ROY-W\ONEDRIVE\מסמכים\MAGSHIMIM\FINAL PROJECT\COMPILER\C COMPILER\C COMPILER\DEBUG\RETURNNODE.OBJ|C:\USERS\ROY-W\ONEDRIVE\מסמכים\MAGSHIMIM\FINAL PROJECT\COMPILER\C COMPILER\C COMPILER\DEBUG\TOKEN.OBJ|C:\USERS\ROY-W\ONEDRIVE\מסמכים\MAGSHIMIM\FINAL PROJECT\COMPILER\C COMPILER\C COMPILER\DEBUG\VALUENODE.OBJ|C:\USERS\ROY-W\ONEDRIVE\מסמכים\MAGSHIMIM\FINAL PROJECT\COMPILER\C COMPILER\C COMPILER\DEBUG\VARDECLARATION.OBJ
/OUT:"C:\USERS\ROY-W\ONEDRIVE\מסמכים\MAGSHIMIM\FINAL PROJECT\COMPILER\C COMPILER\DEBUG\C COMPILER.EXE" /INCREMENTAL /NOLOGO KERNEL32.LIB USER32.LIB GDI32.LIB WINSPOOL.LIB COMDLG32.LIB ADVAPI32.LIB SHELL32.LIB OLE32.LIB OLEAUT32.LIB UUID.LIB ODBC32.LIB ODBCCP32.LIB /MANIFEST /MANIFESTUAC:"level='asInvoker' uiAccess='false'" /manifest:embed /DEBUG:FASTLINK /PDB:"C:\USERS\ROY-W\ONEDRIVE\מסמכים\MAGSHIMIM\FINAL PROJECT\COMPILER\C COMPILER\DEBUG\C COMPILER.PDB" /SUBSYSTEM:CONSOLE /TLBID:1 /DYNAMICBASE /NXCOMPAT /IMPLIB:"C:\USERS\ROY-W\ONEDRIVE\מסמכים\MAGSHIMIM\FINAL PROJECT\COMPILER\C COMPILER\DEBUG\C COMPILER.LIB" /MACHINE:X86 DEBUG\ABSTRACTSYNTAXTREENODE.OBJ
DEBUG\BLOCKNODE.OBJ
DEBUG\CONDITIONNODE.OBJ
DEBUG\FUNCTIONNODE.OBJ
DEBUG\IFNODE.OBJ
DEBUG\LEXER.OBJ
DEBUG\MAIN.OBJ
DEBUG\PROGRAMNODE.OBJ
DEBUG\RETURNNODE.OBJ
DEBUG\TOKEN.OBJ
DEBUG\VALUENODE.OBJ
DEBUG\VARDECLARATION.OBJ
